Gene1	Gene2	EdgeWeight
Cebpa	Gata2	53.13380299528928
EgrNab	Gata2	17.09006389668756
Eklf	Gata2	30.608705397085405
Fli1	Gata2	23.56376862542409
Fog1	Gata2	19.041517323243365
Gata1	Gata2	33.61501669268493
Gfi1	Gata2	17.529648180103017
Pu1	Gata2	100.15735119631167
Scl	Gata2	23.225797925901965
cJun	Gata2	18.363180639516596
Cebpa	Eklf	27.414475640323865
EgrNab	Eklf	22.001671421078857
Fli1	Eklf	38.21327871642539
Fog1	Eklf	34.99133632718848
Gata1	Eklf	35.65360395026645
Gata2	Eklf	23.301755886183894
Gfi1	Eklf	13.282380767853772
Pu1	Eklf	83.9467793962312
Scl	Eklf	43.37751498578998
cJun	Eklf	30.645085083670683
Cebpa	Fli1	25.829767672804948
EgrNab	Fli1	24.052339389657472
Eklf	Fli1	38.531068610224274
Fog1	Fli1	42.9225782953515
Gata1	Fli1	46.754753879989806
Gata2	Fli1	19.294288220802333
Gfi1	Fli1	10.994499223991403
Pu1	Fli1	94.56763654986182
Scl	Fli1	45.6841757073757
cJun	Fli1	28.444897427642594
Cebpa	Fog1	16.019147125873953
EgrNab	Fog1	18.313794566823194
Eklf	Fog1	21.724848022099327
Fli1	Fog1	26.308929859925787
Gata1	Fog1	65.85400301497789
Gata2	Fog1	11.343135417730714
Gfi1	Fog1	10.867623975015036
Pu1	Fog1	79.60538428927809
Scl	Fog1	90.65080993718936
cJun	Fog1	10.829970370418339
Cebpa	Scl	7.684694168236043
EgrNab	Scl	10.349584633788723
Eklf	Scl	18.99511313903693
Fli1	Scl	28.077821929058388
Fog1	Scl	70.63613486864746
Gata1	Scl	58.247833357320864
Gata2	Scl	9.389560182910142
Gfi1	Scl	7.580676760844451
Pu1	Scl	128.79305317871376
cJun	Scl	30.29012051440148
Cebpa	Gata1	28.30824138674955
EgrNab	Gata1	5.139052866704339
Eklf	Gata1	16.352467213033503
Fli1	Gata1	26.32796752747424
Fog1	Gata1	40.11375491051003
Gata2	Gata1	16.624225327413672
Gfi1	Gata1	9.116409659223663
Pu1	Gata1	112.24206756768136
Scl	Gata1	63.79862779617532
cJun	Gata1	33.98691020893071
Cebpa	EgrNab	62.94999411264721
Eklf	EgrNab	7.117642061163051
Fli1	EgrNab	15.697196228745886
Fog1	EgrNab	16.30216242297922
Gata1	EgrNab	41.859654062999
Gata2	EgrNab	16.755144542360597
Gfi1	EgrNab	56.161086383520214
Pu1	EgrNab	24.024486439681123
Scl	EgrNab	20.96463480314775
cJun	EgrNab	135.01894469853633
Cebpa	cJun	21.33095297699477
EgrNab	cJun	205.21227152044187
Eklf	cJun	11.349665732230807
Fli1	cJun	15.027985592706566
Fog1	cJun	15.011843564096436
Gata1	cJun	16.964023706324788
Gata2	cJun	7.116742210229402
Gfi1	cJun	45.492447531506805
Pu1	cJun	27.905296483008883
Scl	cJun	24.81989564620946
EgrNab	Cebpa	41.00723175983261
Eklf	Cebpa	13.259650146844248
Fli1	Cebpa	17.862356640732866
Fog1	Cebpa	39.0458560453271
Gata1	Cebpa	57.28179350535015
Gata2	Cebpa	13.41216285110429
Gfi1	Cebpa	259.8543273533534
Pu1	Cebpa	50.165860133017645
Scl	Cebpa	15.267292755726219
cJun	Cebpa	18.60547319058128
Cebpa	Gfi1	318.8668612375579
EgrNab	Gfi1	28.955536151172495
Eklf	Gfi1	18.93787983750187
Fli1	Gfi1	21.682623089221174
Fog1	Gfi1	24.866593046102
Gata1	Gfi1	27.2237203717088
Gata2	Gfi1	9.944494637814422
Pu1	Gfi1	42.542618488649
Scl	Gfi1	19.41083050138216
cJun	Gfi1	53.60693717114224
Cebpa	Pu1	54.09828497516027
EgrNab	Pu1	44.196421134923526
Eklf	Pu1	16.5368937016224
Fli1	Pu1	10.409830925948725
Fog1	Pu1	15.763675230220946
Gata1	Pu1	97.1128546501931
Gata2	Pu1	27.50052993247619
Gfi1	Pu1	26.299942915497702
Scl	Pu1	98.65440281813514
cJun	Pu1	32.33217249274281
