Gene1	Gene2	EdgeWeight
Cebpa	Gata2	10.540293033963097
EgrNab	Gata2	2.2453527953652785
Eklf	Gata2	5.872745201273022
Fli1	Gata2	3.414351099103285
Fog1	Gata2	2.0791999081577446
Gata1	Gata2	5.860422783399666
Gfi1	Gata2	2.245070577845077
Pu1	Gata2	17.672719028853376
Scl	Gata2	2.11301629980494
cJun	Gata2	2.40573633907132
Cebpa	Eklf	4.905647022170221
EgrNab	Eklf	2.687198840016688
Fli1	Eklf	5.403618638865359
Fog1	Eklf	8.392794672553942
Gata1	Eklf	4.401444663348394
Gata2	Eklf	3.808289710651897
Gfi1	Eklf	1.5886460789436332
Pu1	Eklf	12.962395067350483
Scl	Eklf	8.426383041413043
cJun	Eklf	3.390026181616335
Cebpa	Fli1	3.8628087958990274
EgrNab	Fli1	2.719793404638852
Eklf	Fli1	5.1751121948456
Fog1	Fli1	10.674615999310717
Gata1	Fli1	6.406594974173853
Gata2	Fli1	3.3074891737493126
Gfi1	Fli1	1.1688034443373934
Pu1	Fli1	14.345376196817375
Scl	Fli1	8.10259409678035
cJun	Fli1	2.403169290951695
Cebpa	Fog1	1.640366845207874
EgrNab	Fog1	2.5733863925543288
Eklf	Fog1	5.326374153212239
Fli1	Fog1	7.7174069168531
Gata1	Fog1	10.973580756680638
Gata2	Fog1	1.1811701756229447
Gfi1	Fog1	2.3147223061085302
Pu1	Fog1	14.66891453842887
Scl	Fog1	12.159194286907818
cJun	Fog1	1.169922881690956
Cebpa	Scl	1.2390400673065938
EgrNab	Scl	0.6093478670536345
Eklf	Scl	5.296536098231189
Fli1	Scl	5.518034146952908
Fog1	Scl	9.43698479517631
Gata1	Scl	11.381263782870484
Gata2	Scl	1.205104818100479
Gfi1	Scl	1.210027633277095
Pu1	Scl	20.15201689669423
cJun	Scl	2.9823620824184927
Cebpa	Gata1	5.2416954482606855
EgrNab	Gata1	2.239749282583965
Eklf	Gata1	3.6947136242991148
Fli1	Gata1	5.7708454266685
Fog1	Gata1	7.729465013566844
Gata2	Gata1	3.632225994818473
Gfi1	Gata1	1.26530491087433
Pu1	Gata1	15.552353062692509
Scl	Gata1	9.469416617193577
cJun	Gata1	3.7250737198671335
Cebpa	EgrNab	9.788209120092882
Eklf	EgrNab	1.7418696554610933
Fli1	EgrNab	1.3978672231665359
Fog1	EgrNab	2.047403852868085
Gata1	EgrNab	5.513516934461452
Gata2	EgrNab	1.3485120438202225
Gfi1	EgrNab	9.419511973237483
Pu1	EgrNab	3.4871601794569425
Scl	EgrNab	2.1229998413962585
cJun	EgrNab	21.97981266480667
Cebpa	cJun	2.9623610678301073
EgrNab	cJun	33.49018842012862
Eklf	cJun	0.8662097239824891
Fli1	cJun	1.6047431472819353
Fog1	cJun	3.177701290518807
Gata1	cJun	2.7793871369702514
Gata2	cJun	0.5170609529123111
Gfi1	cJun	6.542807636953622
Pu1	cJun	3.503944788450197
Scl	cJun	2.6608448402633544
EgrNab	Cebpa	9.13735702079182
Eklf	Cebpa	0.8692232039536278
Fli1	Cebpa	1.5724186513892129
Fog1	Cebpa	5.380955267615315
Gata1	Cebpa	9.19053934147232
Gata2	Cebpa	2.316193639629165
Gfi1	Cebpa	42.13897325144873
Pu1	Cebpa	7.744119958402374
Scl	Cebpa	4.149415362127606
cJun	Cebpa	2.289659627426696
Cebpa	Gfi1	55.56055568908262
EgrNab	Gfi1	5.813179011239362
Eklf	Gfi1	2.5000104301298993
Fli1	Gfi1	2.9235019148961072
Fog1	Gfi1	2.379929854271921
Gata1	Gfi1	6.389720621140211
Gata2	Gfi1	1.134383543960451
Pu1	Gfi1	6.554489048031618
Scl	Gfi1	2.249661010431173
cJun	Gfi1	8.323661454195399
Cebpa	Pu1	6.8667984900767145
EgrNab	Pu1	5.188256716558732
Eklf	Pu1	3.0303027206286677
Fli1	Pu1	0.7475949831371558
Fog1	Pu1	4.878618714188693
Gata1	Pu1	15.021678834191322
Gata2	Pu1	3.718930761634505
Gfi1	Pu1	6.0366892630106825
Scl	Pu1	15.95413464369627
cJun	Pu1	4.469183778754807
