Gene2,Gene1,Type
Gata2,Gata2,+
Gata2,Pu1,-
Gata2,Gata1,-
Gata2,Fog1,-
cJun,Pu1,+
cJun,Gfi1,-
Fog1,Gata1,+
Pu1,Cebpa,+
Pu1,Pu1,+
Pu1,Gata1,-
Pu1,Gata2,-
EgrNab,Pu1,+
EgrNab,cJun,+
EgrNab,Gfi1,-
Gata1,Gata1,+
Gata1,Gata2,+
Gata1,Fli1,+
Gata1,Pu1,-
Fli1,Gata1,+
Fli1,Eklf,-
Scl,Gata1,+
Scl,Pu1,-
Eklf,Gata1,+
Eklf,Fli1,-
Gfi1,Cebpa,+
Gfi1,EgrNab,-
Cebpa,Cebpa,+
Cebpa,Scl,-
Cebpa,Fog1,-
Cebpa,Gata1,-
